/* TEAM */                            
Title: Christoffer Rydberg.                            
Site: Car table
Twitter: eukaryoter                            
Location: Lindesberg, Sweden

/* THANKS */							
Name: Anders Larsson, Smelink

/* SITE */                            
Last update: 2013/10/14
Standards: HTML, HTML5, CSS3
Components: jQuery, etc.